%YAML 1.1
%TAG !u! tag:unity3d.com,2011:
--- !u!114 &-7005743495167859814
MonoBehaviour:
  m_ObjectHideFlags: 11
  m_CorrespondingSourceObject: {fileID: 0}
  m_PrefabInstance: {fileID: 0}
  m_PrefabAsset: {fileID: 0}
  m_GameObject: {fileID: 0}
  m_Enabled: 1
  m_EditorHideFlags: 0
  m_Script: {fileID: 11500000, guid: d0353a89b1f911e48b9e16bdc9f2e058, type: 3}
  m_Name: 
  m_EditorClassIdentifier: 
  version: 2
--- !u!21 &2100000
Material:
  serializedVersion: 6
  m_ObjectHideFlags: 0
  m_CorrespondingSourceObject: {fileID: 0}
  m_PrefabInstance: {fileID: 0}
  m_PrefabAsset: {fileID: 0}
  m_Name: LaunchpadMat
  m_Shader: {fileID: -6465566751694194690, guid: 26beea9dbffad1347a8f206c782abb63,
    type: 3}
  m_ShaderKeywords: BOOLEAN_8DDB1032_ON
  m_LightmapFlags: 4
  m_EnableInstancingVariants: 0
  m_DoubleSidedGI: 0
  m_CustomRenderQueue: -1
  stringTagMap: {}
  disabledShaderPasses: []
  m_SavedProperties:
    serializedVersion: 3
    m_TexEnvs:
    - _BaseMap:
        m_Texture: {fileID: 0}
        m_Scale: {x: 1, y: 1}
        m_Offset: {x: 0, y: 0}
    - _BumpMap:
        m_Texture: {fileID: 0}
        m_Scale: {x: 1, y: 1}
        m_Offset: {x: 0, y: 0}
    - _DropShadowDepthTexture:
        m_Texture: {fileID: 8400000, guid: 671e9088f5492a84cb02c342bbdc9063, type: 2}
        m_Scale: {x: 1, y: 1}
        m_Offset: {x: 0, y: 0}
    - _EmissionMap:
        m_Texture: {fileID: 0}
        m_Scale: {x: 1, y: 1}
        m_Offset: {x: 0, y: 0}
    - _MainTex:
        m_Texture: {fileID: 0}
        m_Scale: {x: 1, y: 1}
        m_Offset: {x: 0, y: 0}
    - _MetallicGlossMap:
        m_Texture: {fileID: 0}
        m_Scale: {x: 1, y: 1}
        m_Offset: {x: 0, y: 0}
    - _OcclusionMap:
        m_Texture: {fileID: 0}
        m_Scale: {x: 1, y: 1}
        m_Offset: {x: 0, y: 0}
    - _SpecGlossMap:
        m_Texture: {fileID: 0}
        m_Scale: {x: 1, y: 1}
        m_Offset: {x: 0, y: 0}
    - unity_Lightmaps:
        m_Texture: {fileID: 0}
        m_Scale: {x: 1, y: 1}
        m_Offset: {x: 0, y: 0}
    - unity_LightmapsInd:
        m_Texture: {fileID: 0}
        m_Scale: {x: 1, y: 1}
        m_Offset: {x: 0, y: 0}
    - unity_ShadowMasks:
        m_Texture: {fileID: 0}
        m_Scale: {x: 1, y: 1}
        m_Offset: {x: 0, y: 0}
    m_Floats:
    - BOOLEAN_8DDB1032: 1
    - BOOLEAN_A94E10F9CE884400812F317B69839AFB: 1
    - Vector1_0682468621354e38b29f55834902ea04: 0.3
    - Vector1_128DB77F: 0.5
    - Vector1_6DC61B2A: 1.25
    - Vector1_741C0603: 600
    - Vector1_817E51C8: 1
    - Vector1_c5a7197e697d43d8826323713ac8a578: 6
    - _AlphaClip: 0
    - _Blend: 0
    - _BumpScale: 1
    - _Cull: 2
    - _Cutoff: 0.5
    - _DstBlend: 0
    - _EnvironmentReflections: 1
    - _GlossMapScale: 0
    - _Glossiness: 0
    - _GlossyReflections: 0
    - _Metallic: 0
    - _OcclusionStrength: 1
    - _QueueOffset: 0
    - _ReceiveShadows: 1
    - _Smoothness: 0.5
    - _SmoothnessTextureChannel: 0
    - _SpecularHighlights: 1
    - _Specular_intensity: 1
    - _SrcBlend: 1
    - _Surface: 0
    - _WorkflowMode: 1
    - _ZWrite: 1
    m_Colors:
    - Color_24653349588a451581cac5996f2a65b0: {r: 0, g: 0, b: 0, a: 0}
    - Color_FC2E7BE2: {r: 0.7830189, g: 0.7793254, b: 0.7793254, a: 0}
    - Color_FCDD6626: {r: 0.4313726, g: 0.4980392, b: 0.5019608, a: 1}
    - Vector2_6096825c1bf24746b170edb33309b8cc: {r: 0, g: 0, b: 0, a: 0}
    - Vector2_a0801b7089e2440f8fbedc285aeb4ff6: {r: 1, g: 1, b: 0, a: 0}
    - _BaseColor: {r: 1, g: 0.5896226, b: 0.9344207, a: 1}
    - _CameraPosition: {r: 28.020794, g: -26.788706, b: 29.990883, a: 0}
    - _Color: {r: 0.99047613, g: 1, b: 0, a: 1}
    - _DropShadowColor: {r: 0.5754717, g: 0.5754717, b: 0.5754717, a: 0}
    - _DropShadowOffset: {r: 0.5, g: 0.5, b: 0, a: 0}
    - _DropShadowTiling: {r: 0.25, g: 0.25, b: 0, a: 0}
    - _EmissionColor: {r: 0, g: 0, b: 0, a: 1}
    - _SpecColor: {r: 0.2, g: 0.2, b: 0.2, a: 1}
    - _Specular: {r: 0.2641509, g: 0.2604129, b: 0.2604129, a: 0}
  m_BuildTextureStacks: []
