%YAML 1.1
%TAG !u! tag:unity3d.com,2011:
--- !u!1001 &6749689500213017000
PrefabInstance:
  m_ObjectHideFlags: 0
  serializedVersion: 2
  m_Modification:
    m_TransformParent: {fileID: 0}
    m_Modifications:
    - target: {fileID: 8120171994768143561, guid: 005c52c6ea09a534a98a3ada8772bde2,
        type: 3}
      propertyPath: m_Name
      value: Treadmill Short Variant
      objectReference: {fileID: 0}
    - target: {fileID: 8120171994768143564, guid: 005c52c6ea09a534a98a3ada8772bde2,
        type: 3}
      propertyPath: m_Mesh
      value: 
      objectReference: {fileID: 0}
    - target: {fileID: 8120171994768143564, guid: 005c52c6ea09a534a98a3ada8772bde2,
        type: 3}
      propertyPath: m_Convex
      value: 1
      objectReference: {fileID: 0}
    - target: {fileID: 8120171994768143565, guid: 005c52c6ea09a534a98a3ada8772bde2,
        type: 3}
      propertyPath: m_Mesh
      value: 
      objectReference: {fileID: 0}
    - target: {fileID: 8120171994768143565, guid: 005c52c6ea09a534a98a3ada8772bde2,
        type: 3}
      propertyPath: m_SelectedEdges.Array.size
      value: 0
      objectReference: {fileID: 0}
    - target: {fileID: 8120171994768143565, guid: 005c52c6ea09a534a98a3ada8772bde2,
        type: 3}
      propertyPath: m_SelectedFaces.Array.size
      value: 0
      objectReference: {fileID: 0}
    - target: {fileID: 8120171994768143565, guid: 005c52c6ea09a534a98a3ada8772bde2,
        type: 3}
      propertyPath: m_Positions.Array.data[0].z
      value: 9.905075
      objectReference: {fileID: 0}
    - target: {fileID: 8120171994768143565, guid: 005c52c6ea09a534a98a3ada8772bde2,
        type: 3}
      propertyPath: m_Positions.Array.data[1].z
      value: 9.905075
      objectReference: {fileID: 0}
    - target: {fileID: 8120171994768143565, guid: 005c52c6ea09a534a98a3ada8772bde2,
        type: 3}
      propertyPath: m_Positions.Array.data[2].z
      value: 9.905075
      objectReference: {fileID: 0}
    - target: {fileID: 8120171994768143565, guid: 005c52c6ea09a534a98a3ada8772bde2,
        type: 3}
      propertyPath: m_Positions.Array.data[3].z
      value: 9.905075
      objectReference: {fileID: 0}
    - target: {fileID: 8120171994768143565, guid: 005c52c6ea09a534a98a3ada8772bde2,
        type: 3}
      propertyPath: m_Positions.Array.data[4].z
      value: 9.905075
      objectReference: {fileID: 0}
    - target: {fileID: 8120171994768143565, guid: 005c52c6ea09a534a98a3ada8772bde2,
        type: 3}
      propertyPath: m_Positions.Array.data[5].z
      value: -9.905079
      objectReference: {fileID: 0}
    - target: {fileID: 8120171994768143565, guid: 005c52c6ea09a534a98a3ada8772bde2,
        type: 3}
      propertyPath: m_Positions.Array.data[6].z
      value: 9.905075
      objectReference: {fileID: 0}
    - target: {fileID: 8120171994768143565, guid: 005c52c6ea09a534a98a3ada8772bde2,
        type: 3}
      propertyPath: m_Positions.Array.data[7].z
      value: -9.905079
      objectReference: {fileID: 0}
    - target: {fileID: 8120171994768143565, guid: 005c52c6ea09a534a98a3ada8772bde2,
        type: 3}
      propertyPath: m_Positions.Array.data[8].z
      value: -9.905079
      objectReference: {fileID: 0}
    - target: {fileID: 8120171994768143565, guid: 005c52c6ea09a534a98a3ada8772bde2,
        type: 3}
      propertyPath: m_Positions.Array.data[9].z
      value: -9.905079
      objectReference: {fileID: 0}
    - target: {fileID: 8120171994768143565, guid: 005c52c6ea09a534a98a3ada8772bde2,
        type: 3}
      propertyPath: m_Textures0.Array.data[4].x
      value: 9.905075
      objectReference: {fileID: 0}
    - target: {fileID: 8120171994768143565, guid: 005c52c6ea09a534a98a3ada8772bde2,
        type: 3}
      propertyPath: m_Textures0.Array.data[5].x
      value: -9.905079
      objectReference: {fileID: 0}
    - target: {fileID: 8120171994768143565, guid: 005c52c6ea09a534a98a3ada8772bde2,
        type: 3}
      propertyPath: m_Textures0.Array.data[6].x
      value: 9.905075
      objectReference: {fileID: 0}
    - target: {fileID: 8120171994768143565, guid: 005c52c6ea09a534a98a3ada8772bde2,
        type: 3}
      propertyPath: m_Textures0.Array.data[7].x
      value: -9.905079
      objectReference: {fileID: 0}
    - target: {fileID: 8120171994768143565, guid: 005c52c6ea09a534a98a3ada8772bde2,
        type: 3}
      propertyPath: m_Positions.Array.data[10].z
      value: -9.905079
      objectReference: {fileID: 0}
    - target: {fileID: 8120171994768143565, guid: 005c52c6ea09a534a98a3ada8772bde2,
        type: 3}
      propertyPath: m_Positions.Array.data[11].z
      value: -9.905079
      objectReference: {fileID: 0}
    - target: {fileID: 8120171994768143565, guid: 005c52c6ea09a534a98a3ada8772bde2,
        type: 3}
      propertyPath: m_Positions.Array.data[12].z
      value: -9.905079
      objectReference: {fileID: 0}
    - target: {fileID: 8120171994768143565, guid: 005c52c6ea09a534a98a3ada8772bde2,
        type: 3}
      propertyPath: m_Positions.Array.data[13].z
      value: 9.905075
      objectReference: {fileID: 0}
    - target: {fileID: 8120171994768143565, guid: 005c52c6ea09a534a98a3ada8772bde2,
        type: 3}
      propertyPath: m_Positions.Array.data[14].z
      value: -9.905079
      objectReference: {fileID: 0}
    - target: {fileID: 8120171994768143565, guid: 005c52c6ea09a534a98a3ada8772bde2,
        type: 3}
      propertyPath: m_Positions.Array.data[15].z
      value: 9.905075
      objectReference: {fileID: 0}
    - target: {fileID: 8120171994768143565, guid: 005c52c6ea09a534a98a3ada8772bde2,
        type: 3}
      propertyPath: m_Positions.Array.data[16].z
      value: 9.905075
      objectReference: {fileID: 0}
    - target: {fileID: 8120171994768143565, guid: 005c52c6ea09a534a98a3ada8772bde2,
        type: 3}
      propertyPath: m_Positions.Array.data[17].z
      value: 9.905075
      objectReference: {fileID: 0}
    - target: {fileID: 8120171994768143565, guid: 005c52c6ea09a534a98a3ada8772bde2,
        type: 3}
      propertyPath: m_Positions.Array.data[18].z
      value: -9.905079
      objectReference: {fileID: 0}
    - target: {fileID: 8120171994768143565, guid: 005c52c6ea09a534a98a3ada8772bde2,
        type: 3}
      propertyPath: m_Positions.Array.data[19].z
      value: -9.905079
      objectReference: {fileID: 0}
    - target: {fileID: 8120171994768143565, guid: 005c52c6ea09a534a98a3ada8772bde2,
        type: 3}
      propertyPath: m_Positions.Array.data[20].z
      value: -9.905079
      objectReference: {fileID: 0}
    - target: {fileID: 8120171994768143565, guid: 005c52c6ea09a534a98a3ada8772bde2,
        type: 3}
      propertyPath: m_Positions.Array.data[21].z
      value: -9.905079
      objectReference: {fileID: 0}
    - target: {fileID: 8120171994768143565, guid: 005c52c6ea09a534a98a3ada8772bde2,
        type: 3}
      propertyPath: m_Positions.Array.data[22].z
      value: 9.905075
      objectReference: {fileID: 0}
    - target: {fileID: 8120171994768143565, guid: 005c52c6ea09a534a98a3ada8772bde2,
        type: 3}
      propertyPath: m_Positions.Array.data[23].z
      value: 9.905075
      objectReference: {fileID: 0}
    - target: {fileID: 8120171994768143565, guid: 005c52c6ea09a534a98a3ada8772bde2,
        type: 3}
      propertyPath: m_Textures0.Array.data[12].x
      value: 9.905079
      objectReference: {fileID: 0}
    - target: {fileID: 8120171994768143565, guid: 005c52c6ea09a534a98a3ada8772bde2,
        type: 3}
      propertyPath: m_Textures0.Array.data[13].x
      value: -9.905075
      objectReference: {fileID: 0}
    - target: {fileID: 8120171994768143565, guid: 005c52c6ea09a534a98a3ada8772bde2,
        type: 3}
      propertyPath: m_Textures0.Array.data[14].x
      value: 9.905079
      objectReference: {fileID: 0}
    - target: {fileID: 8120171994768143565, guid: 005c52c6ea09a534a98a3ada8772bde2,
        type: 3}
      propertyPath: m_Textures0.Array.data[15].x
      value: -9.905075
      objectReference: {fileID: 0}
    - target: {fileID: 8120171994768143565, guid: 005c52c6ea09a534a98a3ada8772bde2,
        type: 3}
      propertyPath: m_Textures0.Array.data[16].y
      value: 9.905075
      objectReference: {fileID: 0}
    - target: {fileID: 8120171994768143565, guid: 005c52c6ea09a534a98a3ada8772bde2,
        type: 3}
      propertyPath: m_Textures0.Array.data[17].y
      value: 9.905075
      objectReference: {fileID: 0}
    - target: {fileID: 8120171994768143565, guid: 005c52c6ea09a534a98a3ada8772bde2,
        type: 3}
      propertyPath: m_Textures0.Array.data[18].y
      value: -9.905079
      objectReference: {fileID: 0}
    - target: {fileID: 8120171994768143565, guid: 005c52c6ea09a534a98a3ada8772bde2,
        type: 3}
      propertyPath: m_Textures0.Array.data[19].y
      value: -9.905079
      objectReference: {fileID: 0}
    - target: {fileID: 8120171994768143565, guid: 005c52c6ea09a534a98a3ada8772bde2,
        type: 3}
      propertyPath: m_Textures0.Array.data[20].y
      value: -9.905079
      objectReference: {fileID: 0}
    - target: {fileID: 8120171994768143565, guid: 005c52c6ea09a534a98a3ada8772bde2,
        type: 3}
      propertyPath: m_Textures0.Array.data[21].y
      value: -9.905079
      objectReference: {fileID: 0}
    - target: {fileID: 8120171994768143565, guid: 005c52c6ea09a534a98a3ada8772bde2,
        type: 3}
      propertyPath: m_Textures0.Array.data[22].y
      value: 9.905075
      objectReference: {fileID: 0}
    - target: {fileID: 8120171994768143565, guid: 005c52c6ea09a534a98a3ada8772bde2,
        type: 3}
      propertyPath: m_Textures0.Array.data[23].y
      value: 9.905075
      objectReference: {fileID: 0}
    - target: {fileID: 8120171994768143565, guid: 005c52c6ea09a534a98a3ada8772bde2,
        type: 3}
      propertyPath: m_SelectedVertices.Array.size
      value: 0
      objectReference: {fileID: 0}
    - target: {fileID: 8120171994768143565, guid: 005c52c6ea09a534a98a3ada8772bde2,
        type: 3}
      propertyPath: m_SelectedEdges.Array.data[0].b
      value: 1
      objectReference: {fileID: 0}
    - target: {fileID: 8120171994768143565, guid: 005c52c6ea09a534a98a3ada8772bde2,
        type: 3}
      propertyPath: m_SelectedEdges.Array.data[1].a
      value: 2
      objectReference: {fileID: 0}
    - target: {fileID: 8120171994768143565, guid: 005c52c6ea09a534a98a3ada8772bde2,
        type: 3}
      propertyPath: m_SelectedEdges.Array.data[2].a
      value: 1
      objectReference: {fileID: 0}
    - target: {fileID: 8120171994768143565, guid: 005c52c6ea09a534a98a3ada8772bde2,
        type: 3}
      propertyPath: m_SelectedEdges.Array.data[2].b
      value: 3
      objectReference: {fileID: 0}
    - target: {fileID: 8120171994768143565, guid: 005c52c6ea09a534a98a3ada8772bde2,
        type: 3}
      propertyPath: m_SelectedEdges.Array.data[3].a
      value: 3
      objectReference: {fileID: 0}
    - target: {fileID: 8120171994768143565, guid: 005c52c6ea09a534a98a3ada8772bde2,
        type: 3}
      propertyPath: m_SelectedEdges.Array.data[3].b
      value: 2
      objectReference: {fileID: 0}
    - target: {fileID: 8120171994768143565, guid: 005c52c6ea09a534a98a3ada8772bde2,
        type: 3}
      propertyPath: m_SelectedVertices.Array.data[1]
      value: 1
      objectReference: {fileID: 0}
    - target: {fileID: 8120171994768143565, guid: 005c52c6ea09a534a98a3ada8772bde2,
        type: 3}
      propertyPath: m_SelectedVertices.Array.data[2]
      value: 2
      objectReference: {fileID: 0}
    - target: {fileID: 8120171994768143565, guid: 005c52c6ea09a534a98a3ada8772bde2,
        type: 3}
      propertyPath: m_SelectedVertices.Array.data[3]
      value: 3
      objectReference: {fileID: 0}
    - target: {fileID: 8120171994768143568, guid: 005c52c6ea09a534a98a3ada8772bde2,
        type: 3}
      propertyPath: m_RootOrder
      value: 0
      objectReference: {fileID: 0}
    - target: {fileID: 8120171994768143568, guid: 005c52c6ea09a534a98a3ada8772bde2,
        type: 3}
      propertyPath: m_LocalScale.z
      value: 20
      objectReference: {fileID: 0}
    - target: {fileID: 8120171994768143568, guid: 005c52c6ea09a534a98a3ada8772bde2,
        type: 3}
      propertyPath: m_LocalPosition.x
      value: 19.600006
      objectReference: {fileID: 0}
    - target: {fileID: 8120171994768143568, guid: 005c52c6ea09a534a98a3ada8772bde2,
        type: 3}
      propertyPath: m_LocalPosition.y
      value: 69
      objectReference: {fileID: 0}
    - target: {fileID: 8120171994768143568, guid: 005c52c6ea09a534a98a3ada8772bde2,
        type: 3}
      propertyPath: m_LocalPosition.z
      value: -30.915075
      objectReference: {fileID: 0}
    - target: {fileID: 8120171994768143568, guid: 005c52c6ea09a534a98a3ada8772bde2,
        type: 3}
      propertyPath: m_LocalRotation.w
      value: 1
      objectReference: {fileID: 0}
    - target: {fileID: 8120171994768143568, guid: 005c52c6ea09a534a98a3ada8772bde2,
        type: 3}
      propertyPath: m_LocalRotation.x
      value: 0
      objectReference: {fileID: 0}
    - target: {fileID: 8120171994768143568, guid: 005c52c6ea09a534a98a3ada8772bde2,
        type: 3}
      propertyPath: m_LocalRotation.y
      value: 0
      objectReference: {fileID: 0}
    - target: {fileID: 8120171994768143568, guid: 005c52c6ea09a534a98a3ada8772bde2,
        type: 3}
      propertyPath: m_LocalRotation.z
      value: 0
      objectReference: {fileID: 0}
    - target: {fileID: 8120171994768143568, guid: 005c52c6ea09a534a98a3ada8772bde2,
        type: 3}
      propertyPath: m_LocalEulerAnglesHint.x
      value: 0
      objectReference: {fileID: 0}
    - target: {fileID: 8120171994768143568, guid: 005c52c6ea09a534a98a3ada8772bde2,
        type: 3}
      propertyPath: m_LocalEulerAnglesHint.y
      value: 0
      objectReference: {fileID: 0}
    - target: {fileID: 8120171994768143568, guid: 005c52c6ea09a534a98a3ada8772bde2,
        type: 3}
      propertyPath: m_LocalEulerAnglesHint.z
      value: 0
      objectReference: {fileID: 0}
    - target: {fileID: 8120171995156435577, guid: 005c52c6ea09a534a98a3ada8772bde2,
        type: 3}
      propertyPath: m_LocalScale.x
      value: 0.25
      objectReference: {fileID: 0}
    - target: {fileID: 8120171995156435577, guid: 005c52c6ea09a534a98a3ada8772bde2,
        type: 3}
      propertyPath: m_LocalScale.z
      value: 0.05
      objectReference: {fileID: 0}
    m_RemovedComponents: []
  m_SourcePrefab: {fileID: 100100000, guid: 005c52c6ea09a534a98a3ada8772bde2, type: 3}
