%YAML 1.1
%TAG !u! tag:unity3d.com,2011:
--- !u!21 &2100000
Material:
  serializedVersion: 6
  m_ObjectHideFlags: 0
  m_CorrespondingSourceObject: {fileID: 0}
  m_PrefabInstance: {fileID: 0}
  m_PrefabAsset: {fileID: 0}
  m_Name: ShoeWhite2
  m_Shader: {fileID: -6465566751694194690, guid: 26beea9dbffad1347a8f206c782abb63,
    type: 3}
  m_ShaderKeywords: HARD_SHADING_ON _RECEIVEDROPSHADOWKEYWORD
  m_LightmapFlags: 4
  m_EnableInstancingVariants: 0
  m_DoubleSidedGI: 0
  m_CustomRenderQueue: -1
  stringTagMap: {}
  disabledShaderPasses: []
  m_SavedProperties:
    serializedVersion: 3
    m_TexEnvs:
    - Texture2D_47d1c77b78774e6d9ec58d16e01c6675:
        m_Texture: {fileID: 0}
        m_Scale: {x: 1, y: 1}
        m_Offset: {x: 0, y: 0}
    - _BumpMap:
        m_Texture: {fileID: 0}
        m_Scale: {x: 1, y: 1}
        m_Offset: {x: 0, y: 0}
    - _DetailAlbedoMap:
        m_Texture: {fileID: 0}
        m_Scale: {x: 1, y: 1}
        m_Offset: {x: 0, y: 0}
    - _DetailMask:
        m_Texture: {fileID: 0}
        m_Scale: {x: 1, y: 1}
        m_Offset: {x: 0, y: 0}
    - _DetailNormalMap:
        m_Texture: {fileID: 0}
        m_Scale: {x: 1, y: 1}
        m_Offset: {x: 0, y: 0}
    - _DropShadowDepthTexture:
        m_Texture: {fileID: 8400000, guid: 671e9088f5492a84cb02c342bbdc9063, type: 2}
        m_Scale: {x: 1, y: 1}
        m_Offset: {x: 0, y: 0}
    - _EmissionMap:
        m_Texture: {fileID: 0}
        m_Scale: {x: 1, y: 1}
        m_Offset: {x: 0, y: 0}
    - _MainTex:
        m_Texture: {fileID: 0}
        m_Scale: {x: 1, y: 1}
        m_Offset: {x: 0, y: 0}
    - _MetallicGlossMap:
        m_Texture: {fileID: 0}
        m_Scale: {x: 1, y: 1}
        m_Offset: {x: 0, y: 0}
    - _NormalTex:
        m_Texture: {fileID: 0}
        m_Scale: {x: 1, y: 1}
        m_Offset: {x: 0, y: 0}
    - _OcclusionMap:
        m_Texture: {fileID: 0}
        m_Scale: {x: 1, y: 1}
        m_Offset: {x: 0, y: 0}
    - _OcclusionTex:
        m_Texture: {fileID: 0}
        m_Scale: {x: 1, y: 1}
        m_Offset: {x: 0, y: 0}
    - _ParallaxMap:
        m_Texture: {fileID: 0}
        m_Scale: {x: 1, y: 1}
        m_Offset: {x: 0, y: 0}
    - _SmoothnessTex:
        m_Texture: {fileID: 0}
        m_Scale: {x: 1, y: 1}
        m_Offset: {x: 0, y: 0}
    - _Texture2DAsset_E8C87502_Out_0:
        m_Texture: {fileID: 2800000, guid: f0a1579987db14b61a28395b2e97dd08, type: 3}
        m_Scale: {x: 1, y: 1}
        m_Offset: {x: 0, y: 0}
    - unity_Lightmaps:
        m_Texture: {fileID: 0}
        m_Scale: {x: 1, y: 1}
        m_Offset: {x: 0, y: 0}
    - unity_LightmapsInd:
        m_Texture: {fileID: 0}
        m_Scale: {x: 1, y: 1}
        m_Offset: {x: 0, y: 0}
    - unity_ShadowMasks:
        m_Texture: {fileID: 0}
        m_Scale: {x: 1, y: 1}
        m_Offset: {x: 0, y: 0}
    m_Floats:
    - BOOLEAN_76C42AF7CBDF452AAF8DE3EAF8F8664C: 0
    - BOOLEAN_8DDB1032: 0
    - BOOLEAN_A94E10F9CE884400812F317B69839AFB: 0
    - HARD_SHADING: 1
    - Vector1_0682468621354e38b29f55834902ea04: 0.3
    - Vector1_128DB77F: 0.5
    - Vector1_6DC61B2A: 1.25
    - Vector1_741C0603: 600
    - Vector1_767BAF47: 1
    - Vector1_817E51C8: 1
    - Vector1_962926F1: 1.1
    - Vector1_CA41A765: 100
    - Vector1_c5a7197e697d43d8826323713ac8a578: 6
    - Vector1_eab82870b1164240811fd4b41bf48e4a: -5
    - _BacklightAmount: 2.3
    - _BumpScale: 1
    - _Cutoff: 0.5
    - _DabsRotation: 15
    - _DabsTiling: 53
    - _DetailNormalMapScale: 1
    - _DstBlend: 0
    - _GlossMapScale: 1
    - _Glossiness: 0
    - _GlossyReflections: 1
    - _Metallic: 0
    - _Mode: 0
    - _NormalMult: 1
    - _OcclusionMult: 1
    - _OcclusionStrength: 1
    - _Parallax: 0.02
    - _Smoothness: 0.581
    - _SmoothnessTextureChannel: 0
    - _SpecularHighlights: 1
    - _Specular_intensity: 1
    - _SrcBlend: 1
    - _UVSec: 0
    - _ZWrite: 1
    m_Colors:
    - Color_24653349588a451581cac5996f2a65b0: {r: 0, g: 0, b: 0, a: 0}
    - Color_FC2E7BE2: {r: 0.7830189, g: 0.7793254, b: 0.7793254, a: 0}
    - Color_FC41E789: {r: 0.747953, g: 0.8251391, b: 0.8301887, a: 1}
    - Color_FCDD6626: {r: 0.4313726, g: 0.4980392, b: 0.5019608, a: 1}
    - Vector2_6096825c1bf24746b170edb33309b8cc: {r: 0, g: 0, b: 0, a: 0}
    - Vector2_a0801b7089e2440f8fbedc285aeb4ff6: {r: 1, g: 1, b: 0, a: 0}
    - _CameraPosition: {r: 12, g: 38, b: 8, a: 0}
    - _Color: {r: 0.457531, g: 0.457531, b: 0.457531, a: 1}
    - _DropShadowColor: {r: 0.5754717, g: 0.5754717, b: 0.5754717, a: 0}
    - _DropShadowOffset: {r: 0.5, g: 0.5, b: 0, a: 0}
    - _DropShadowTiling: {r: 0.25, g: 0.25, b: 0, a: 0}
    - _EmissionColor: {r: 0, g: 0, b: 0, a: 1}
    - _Specular: {r: 0.2075472, g: 0.2075472, b: 0.2075472, a: 0}
    - _TextureTiling: {r: 1, g: 1, b: 0, a: 0}
  m_BuildTextureStacks: []
